NLP
…
Fr att analysera regeringsfrklaringarna s kommer jag att anvnda mig av paketet tidytext av Julia Silge och David Robinson. Det r ett av mnga paket som finns tillgngliga fr att gra textanalys i R. Vad som gr att det hr sticker ut r att det fljer principer om tidy data vilket innebr att man alltid strvar efter att ha observationer i rader och variabler i kolumner vilket fr visualisering och modellering av data.

Till att brja med gr jag om textvariabeln s att varje ord blir en rad. Det hr gr jag med funktionen unnest_tokens.

library(tidytext)
library(ggplot2)
tidy_regf <- regf %>%
  filter(!str_detect(text, "Regeringsfrklaring")) %>%
  unnest_tokens(ord, text)

tidy_regf

## # A tibble: 129,341 x 3
##    datum      statsminister    ord                
##    <date>     <chr>            <chr>              
##  1 1976-10-08 Torbjrn Flldin regeringspartierna 
##  2 1976-10-08 Torbjrn Flldin r                 
##  3 1976-10-08 Torbjrn Flldin ense               
##  4 1976-10-08 Torbjrn Flldin om                 
##  5 1976-10-08 Torbjrn Flldin att                
##  6 1976-10-08 Torbjrn Flldin finansdepartementet
##  7 1976-10-08 Torbjrn Flldin s                 
##  8 1976-10-08 Torbjrn Flldin snart              
##  9 1976-10-08 Torbjrn Flldin som                
## 10 1976-10-08 Torbjrn Flldin mjligt            
## # ... with 129,331 more rows
…
sv_stoppord <- read_csv("stoppord.csv")

## Parsed with column specification:
## cols(
##   stoppord = col_character()
## )

tvttade_regf <- tidy_regf %>%
  filter(!str_detect(ord, "[[:digit:]]")) %>%
  anti_join(get_stopwords(language = "sv"), by = c("ord" = "word")) %>%
  anti_join(sv_stoppord, by = c("ord" = "stoppord"))

tvttade_regf

## # A tibble: 67,344 x 3
##    datum      statsminister    ord                
##    <date>     <chr>            <chr>              
##  1 1976-10-08 Torbjrn Flldin regeringspartierna 
##  2 1976-10-08 Torbjrn Flldin ense               
##  3 1976-10-08 Torbjrn Flldin finansdepartementet
##  4 1976-10-08 Torbjrn Flldin samrd             
##  5 1976-10-08 Torbjrn Flldin berrd             
##  6 1976-10-08 Torbjrn Flldin personal           
##  7 1976-10-08 Torbjrn Flldin delas              
##  8 1976-10-08 Torbjrn Flldin ekonomidepartement 
##  9 1976-10-08 Torbjrn Flldin budgetdepartement  
## 10 1976-10-08 Torbjrn Flldin chef               
## # ... with 67,334 more rows
…
Den sista analysen vi gr av regeringsfrklaringarna handlar om relationen mellan ord. Det vi gr d r helt enkel att rkna antalet gnger olika ord nmns tillsammans. Kort sagt rknar vi tv ord i taget istllet fr ett ord i taget.

Med tidytext gr vi det genom att specificera hur mnga ngrams vi vill anvnda. Under motorhuven anvnds hr paketet tokenizers.

bigram_regf <- regf %>%
  filter(!is.na(statsminister)) %>%
  unnest_tokens(bigram, text, token = "ngrams", n = 2)
bigram_regf

## # A tibble: 129,483 x 3
##    datum      statsminister    bigram                      
##    <date>     <chr>            <chr>                       
##  1 1976-10-08 Torbjrn Flldin regeringsfrklaring 19761008
##  2 1976-10-08 Torbjrn Flldin 19761008 torbjrn           
##  3 1976-10-08 Torbjrn Flldin torbjrn flldin            
##  4 1976-10-08 Torbjrn Flldin flldin regeringspartierna  
##  5 1976-10-08 Torbjrn Flldin regeringspartierna r       
##  6 1976-10-08 Torbjrn Flldin r ense                     
##  7 1976-10-08 Torbjrn Flldin ense om                     
##  8 1976-10-08 Torbjrn Flldin om att                      
##  9 1976-10-08 Torbjrn Flldin att finansdepartementet     
## 10 1976-10-08 Torbjrn Flldin finansdepartementet s      
## # ... with 129,473 more rows

Vi kan nu rkna vilka ord som nmns tillsammans mest.

bigram_regf %>%
   count(bigram, sort = TRUE)

## # A tibble: 66,880 x 2
##    bigram                n
##    <chr>             <int>
##  1 fr att            1005
##  2 kommer att          470
##  3 det r              264
##  4 r en               175
##  5 regeringen kommer   161
##  6 fr en              158
##  7 sverige ska         148
##  8 i sverige           137
##  9 r att              136
## 10 en ny               136
## # ... with 66,870 more rows
…
library(tidyr)
bigrams_separated <- bigram_regf %>%
  separate(bigram, c("word1", "word2"), sep = " ")

bigrams_filtered <- bigrams_separated %>%
  filter_at(vars(word1, word2), all_vars(!. %in% sv_stoppord$stoppord))

# new bigram counts:
bigram_counts <- bigrams_filtered %>% 
  count(word1, word2, sort = TRUE)

bigram_counts

## # A tibble: 23,424 x 3
##    word1            word2              n
##    <chr>            <chr>          <int>
##  1 herr             talman           111
##  2 regeringen       avser             65
##  3 full             sysselsttning    45
##  4 sveriges         riksdag           44
##  5 offentliga       finanserna        41
##  6 miljarder        kronor            40
##  7 arbetsmarknadens parter            38
##  8 ekonomiska       politiken         37
##  9 eders            kungliga          34
## 10 eders            majestter        34
## # ... with 23,414 more rows

Nr vi nu har rensat fr stoppord kan vi st ihop orden till en kolumn.

bigrams_united <- bigrams_filtered %>%
  unite(bigram, word1, word2, sep = " ")

bigrams_united

## # A tibble: 30,692 x 3
##    datum      statsminister    bigram                      
##    <date>     <chr>            <chr>                       
##  1 1976-10-08 Torbjrn Flldin regeringsfrklaring 19761008
##  2 1976-10-08 Torbjrn Flldin 19761008 torbjrn           
##  3 1976-10-08 Torbjrn Flldin torbjrn flldin            
##  4 1976-10-08 Torbjrn Flldin flldin regeringspartierna  
##  5 1976-10-08 Torbjrn Flldin berrd personal             
##  6 1976-10-08 Torbjrn Flldin budgetdepartement chef      
##  7 1976-10-08 Torbjrn Flldin statsrdet gsta            
##  8 1976-10-08 Torbjrn Flldin gsta bohman                
##  9 1976-10-08 Torbjrn Flldin bohman chef                 
## 10 1976-10-08 Torbjrn Flldin statsrdet ingemar          
## # ... with 30,682 more rows
…
