Textanalys av Sveriges regeringsförklaring
…
---

# Efter en del kodande och mycket copy paste

```r
library(tidyverse)
regf <- read_csv("data/regf.csv")
```

---

# En data.frame med stycke, datum och statsminister

```
## # A tibble: 4,283 x 3
##    text                                           datum      statsminister 
##    <chr>                                          <date>     <chr>         
##  1 Regeringsförklaring, 19761008, Torbjörn Fälld… 1976-10-08 Torbjörn Fäll…
##  2 Regeringspartierna är ense om att finansdepar… 1976-10-08 Torbjörn Fäll…
##  3 I anslutning till denna anmälan vill jag ge r… 1976-10-08 Torbjörn Fäll…
##  4 Enighet har alltså nåtts mellan Centerpartiet… 1976-10-08 Torbjörn Fäll…
##  5 Med fasthet och ansvar skall vi föra en polit… 1976-10-08 Torbjörn Fäll…
##  6 Regeringen skall sträva efter att bryta tende… 1976-10-08 Torbjörn Fäll…
##  7 Tryggheten för alla generationer och grupper … 1976-10-08 Torbjörn Fäll…
##  8 Den sociala marknadshushållningen förstärks g… 1976-10-08 Torbjörn Fäll…
##  9 Regeringen skall föra en politik för sysselsä… 1976-10-08 Torbjörn Fäll…
## 10 Sträng hushållning måste ske med naturtillgån… 1976-10-08 Torbjörn Fäll…
## # … with 4,273 more rows
```
…
# Vansinnigt enkelt att göra text tidy med `tidytext`

```r
library(tidytext)
tidy_regf <- regf %>%
  filter(!str_detect(text, "Regeringsförklaring")) %>%
* unnest_tokens(ord, text)
```

---

# Tidy text data

```
## # A tibble: 129,341 x 3
##    datum      statsminister    ord                
##    <date>     <chr>            <chr>              
##  1 1976-10-08 Torbjörn Fälldin regeringspartierna 
##  2 1976-10-08 Torbjörn Fälldin är                 
##  3 1976-10-08 Torbjörn Fälldin ense               
##  4 1976-10-08 Torbjörn Fälldin om                 
##  5 1976-10-08 Torbjörn Fälldin att                
##  6 1976-10-08 Torbjörn Fälldin finansdepartementet
##  7 1976-10-08 Torbjörn Fälldin så                 
##  8 1976-10-08 Torbjörn Fälldin snart              
##  9 1976-10-08 Torbjörn Fälldin som                
## 10 1976-10-08 Torbjörn Fälldin möjligt            
## # … with 129,331 more rows
```

---

# Stoppord &#x1F640;

- Ord som *och*, *så*, *att* och så vidare
- Finns lista i :

```r
get_stopwords(language = "sv", source = "snowball")
```

```
## # A tibble: 114 x 2
##    word  lexicon 
##    <chr> <chr>   
##  1 och   snowball
##  2 det   snowball
##  3 att   snowball
##  4 i     snowball
##  5 en    snowball
##  6 jag   snowball
##  7 hon   snowball
##  8 som   snowball
##  9 han   snowball
## 10 på    snowball
## # … with 104 more rows
```
…
